<?xml version="1.0" encoding="UTF-8" standalone="no"?>
<!-- Created with Inkscape (http://www.inkscape.org/) -->

<svg
   width="297mm"
   height="210mm"
   viewBox="0 0 297 210"
   version="1.1"
   id="svg5"
   inkscape:version="1.1.2 (0a00cf5339, 2022-02-04)"
   sodipodi:docname="jul-dec.svg"
   xmlns:inkscape="http://www.inkscape.org/namespaces/inkscape"
   xmlns:sodipodi="http://sodipodi.sourceforge.net/DTD/sodipodi-0.dtd"
   xmlns="http://www.w3.org/2000/svg"
   xmlns:svg="http://www.w3.org/2000/svg">
  <sodipodi:namedview
     id="namedview7"
     pagecolor="#ffffff"
     bordercolor="#666666"
     borderopacity="1.0"
     inkscape:pageshadow="2"
     inkscape:pageopacity="0.0"
     inkscape:pagecheckerboard="0"
     inkscape:document-units="mm"
     showgrid="false"
     showguides="true"
     inkscape:guide-bbox="true"
     inkscape:zoom="0.57192761"
     inkscape:cx="523.66767"
     inkscape:cy="320.8448"
     inkscape:window-width="1280"
     inkscape:window-height="1000"
     inkscape:window-x="1600"
     inkscape:window-y="0"
     inkscape:window-maximized="1"
     inkscape:current-layer="layer1">
    <sodipodi:guide
       position="-41.595419,190.81486"
       orientation="1,0"
       id="guide824" />
    <sodipodi:guide
       position="-17.938713,247.59607"
       orientation="0,-1"
       id="guide1136" />
  </sodipodi:namedview>
  <defs
     id="defs2" />
  <g
     inkscape:label="Layer 1"
     inkscape:groupmode="layer"
     id="layer1">
    <g
       id="g38436-3-8"
       transform="translate(-0.43785351,3.7041744)">
      <rect
         style="color:#000000;overflow:visible;vector-effect:non-scaling-stroke;fill:#000000;fill-opacity:1;stroke:#000000;stroke-width:0.00185208;stroke-linecap:round;stroke-linejoin:round;stroke-miterlimit:4;stroke-dasharray:none;stroke-dashoffset:0.56;-inkscape-stroke:hairline"
         id="rect1054-3-65-1"
         width="38"
         height="8"
         x="15.482892"
         y="30.144213" />
      <rect
         style="color:#000000;overflow:visible;vector-effect:non-scaling-stroke;fill:#000000;fill-opacity:1;stroke:#000000;stroke-width:0.00185208;stroke-linecap:round;stroke-linejoin:round;stroke-miterlimit:4;stroke-dasharray:none;stroke-dashoffset:0.56;-inkscape-stroke:hairline"
         id="rect1054-3-6-2-7"
         width="38"
         height="8"
         x="53.482895"
         y="30.144213" />
      <rect
         style="color:#000000;overflow:visible;vector-effect:non-scaling-stroke;fill:#000000;fill-opacity:1;stroke:#000000;stroke-width:0.00185208;stroke-linecap:round;stroke-linejoin:round;stroke-miterlimit:4;stroke-dasharray:none;stroke-dashoffset:0.56;-inkscape-stroke:hairline"
         id="rect1054-3-6-7-6-8"
         width="38"
         height="8"
         x="91.482895"
         y="30.144213" />
      <rect
         style="color:#000000;overflow:visible;vector-effect:non-scaling-stroke;fill:#000000;fill-opacity:1;stroke:#000000;stroke-width:0.00185208;stroke-linecap:round;stroke-linejoin:round;stroke-miterlimit:4;stroke-dasharray:none;stroke-dashoffset:0.56;-inkscape-stroke:hairline"
         id="rect1054-3-6-7-5-5-9"
         width="38"
         height="8"
         x="129.48289"
         y="30.144213" />
      <rect
         style="color:#000000;overflow:visible;vector-effect:non-scaling-stroke;fill:#a7a7a7;fill-opacity:1;stroke:#000000;stroke-width:0.00185208;stroke-linecap:round;stroke-linejoin:round;stroke-miterlimit:4;stroke-dasharray:none;stroke-dashoffset:0.56;-inkscape-stroke:hairline"
         id="rect1054-3-6-7-5-3-8-1"
         width="38"
         height="8"
         x="167.48289"
         y="30.144213" />
      <rect
         style="color:#000000;overflow:visible;vector-effect:non-scaling-stroke;fill:#a7a7a7;fill-opacity:1;stroke:#000000;stroke-width:0.00183309;stroke-linecap:round;stroke-linejoin:round;stroke-miterlimit:4;stroke-dasharray:none;stroke-dashoffset:0.56;-inkscape-stroke:hairline"
         id="rect1054-3-6-7-5-3-5-7-5"
         width="37.303482"
         height="7.9831309"
         x="205.49133"
         y="30.152647" />
      <g
         id="g42077"
         transform="translate(227.31191)">
        <rect
           style="color:#000000;overflow:visible;vector-effect:non-scaling-stroke;fill:#000000;fill-opacity:1;stroke:#000000;stroke-width:0.00185208;stroke-linecap:round;stroke-linejoin:round;stroke-miterlimit:4;stroke-dasharray:none;stroke-dashoffset:0.56;-inkscape-stroke:hairline"
           id="rect1054-32-0"
           width="38"
           height="8"
           x="15.482892"
           y="30.144213" />
        <text
           xml:space="preserve"
           style="font-size:5.73467px;line-height:1ex;font-family:'Futura Book';-inkscape-font-specification:'Futura Book, ';letter-spacing:0px;word-spacing:0px;writing-mode:lr-tb;fill:#e7e7e7;fill-opacity:1;stroke:none;stroke-width:0.143593;stroke-linecap:butt;stroke-linejoin:miter;stroke-miterlimit:4;stroke-dasharray:none;stroke-opacity:1"
           x="21.367073"
           y="36.045105"
           id="text2756-9-4"><tspan
             sodipodi:role="line"
             id="tspan2754-6-9"
             style="font-style:normal;font-variant:normal;font-weight:600;font-stretch:normal;font-family:'Open Sans';-inkscape-font-specification:'Open Sans Semi-Bold';fill:#e7e7e7;fill-opacity:1;stroke:none;stroke-width:0.143593;stroke-miterlimit:4;stroke-dasharray:none;stroke-opacity:1"
             x="21.367073"
             y="36.045105">MONDAY</tspan></text>
      </g>
      <text
         xml:space="preserve"
         style="font-size:5.73467px;line-height:1ex;font-family:'Futura Book';-inkscape-font-specification:'Futura Book, ';letter-spacing:0px;word-spacing:0px;writing-mode:lr-tb;fill:#e7e7e7;fill-opacity:1;stroke:none;stroke-width:0.143593;stroke-linecap:butt;stroke-linejoin:miter;stroke-miterlimit:4;stroke-dasharray:none;stroke-opacity:1"
         x="21.817894"
         y="36.042297"
         id="text2756-6-0-2"><tspan
           sodipodi:role="line"
           id="tspan2754-2-4-5"
           style="font-style:normal;font-variant:normal;font-weight:600;font-stretch:normal;font-family:'Open Sans';-inkscape-font-specification:'Open Sans Semi-Bold';fill:#e7e7e7;fill-opacity:1;stroke:none;stroke-width:0.143593;stroke-miterlimit:4;stroke-dasharray:none;stroke-opacity:1"
           x="21.817894"
           y="36.042297">TUESDAY</tspan></text>
      <text
         xml:space="preserve"
         style="font-size:5.73467px;line-height:1ex;font-family:'Futura Book';-inkscape-font-specification:'Futura Book, ';letter-spacing:0px;word-spacing:0px;writing-mode:lr-tb;fill:#e7e7e7;fill-opacity:1;stroke:none;stroke-width:0.143593;stroke-linecap:butt;stroke-linejoin:miter;stroke-miterlimit:4;stroke-dasharray:none;stroke-opacity:1"
         x="54.930267"
         y="36.042297"
         id="text2756-6-9-1-7"><tspan
           sodipodi:role="line"
           id="tspan2754-2-1-0-4"
           style="font-style:normal;font-variant:normal;font-weight:600;font-stretch:normal;font-family:'Open Sans';-inkscape-font-specification:'Open Sans Semi-Bold';fill:#e7e7e7;fill-opacity:1;stroke:none;stroke-width:0.143593;stroke-miterlimit:4;stroke-dasharray:none;stroke-opacity:1"
           x="54.930267"
           y="36.042297">WEDNESDAY</tspan></text>
      <text
         xml:space="preserve"
         style="font-size:5.73467px;line-height:1ex;font-family:'Futura Book';-inkscape-font-specification:'Futura Book, ';letter-spacing:0px;word-spacing:0px;writing-mode:lr-tb;fill:#e7e7e7;fill-opacity:1;stroke:none;stroke-width:0.143593;stroke-linecap:butt;stroke-linejoin:miter;stroke-miterlimit:4;stroke-dasharray:none;stroke-opacity:1"
         x="95.43219"
         y="36.042297"
         id="text2756-6-9-2-4-9"
         inkscape:transform-center-x="21.323223"
         inkscape:transform-center-y="-17.018479"><tspan
           sodipodi:role="line"
           id="tspan2754-2-1-7-8-9"
           style="font-style:normal;font-variant:normal;font-weight:600;font-stretch:normal;font-family:'Open Sans';-inkscape-font-specification:'Open Sans Semi-Bold';fill:#e7e7e7;fill-opacity:1;stroke:none;stroke-width:0.143593;stroke-miterlimit:4;stroke-dasharray:none;stroke-opacity:1"
           x="95.43219"
           y="36.042297">THURSDAY</tspan></text>
      <text
         xml:space="preserve"
         style="font-size:5.73467px;line-height:1ex;font-family:'Futura Book';-inkscape-font-specification:'Futura Book, ';letter-spacing:0px;word-spacing:0px;writing-mode:lr-tb;fill:#e7e7e7;fill-opacity:1;stroke:none;stroke-width:0.143593;stroke-linecap:butt;stroke-linejoin:miter;stroke-miterlimit:4;stroke-dasharray:none;stroke-opacity:1"
         x="138.28201"
         y="36.049297"
         id="text2756-6-9-2-0-7-4"
         inkscape:transform-center-x="21.323223"
         inkscape:transform-center-y="-17.018479"><tspan
           sodipodi:role="line"
           id="tspan2754-2-1-7-9-0-5"
           style="font-style:normal;font-variant:normal;font-weight:600;font-stretch:normal;font-family:'Open Sans';-inkscape-font-specification:'Open Sans Semi-Bold';fill:#e7e7e7;fill-opacity:1;stroke:none;stroke-width:0.143593;stroke-miterlimit:4;stroke-dasharray:none;stroke-opacity:1"
           x="138.28201"
           y="36.049297">FRIDAY</tspan></text>
      <text
         xml:space="preserve"
         style="font-size:5.73467px;line-height:1ex;font-family:'Futura Book';-inkscape-font-specification:'Futura Book, ';letter-spacing:0px;word-spacing:0px;writing-mode:lr-tb;fill:#000000;fill-opacity:1;stroke:none;stroke-width:0.143593;stroke-linecap:butt;stroke-linejoin:miter;stroke-miterlimit:4;stroke-dasharray:none;stroke-opacity:1"
         x="171.59039"
         y="36.042297"
         id="text2756-6-9-2-0-3-8-9"
         inkscape:transform-center-x="21.323223"
         inkscape:transform-center-y="-17.018479"><tspan
           sodipodi:role="line"
           id="tspan2754-2-1-7-9-6-62-3"
           style="font-style:normal;font-variant:normal;font-weight:600;font-stretch:normal;font-family:'Open Sans';-inkscape-font-specification:'Open Sans Semi-Bold';fill:#000000;fill-opacity:1;stroke:none;stroke-width:0.143593;stroke-miterlimit:4;stroke-dasharray:none;stroke-opacity:1"
           x="171.59039"
           y="36.042297">SATURDAY</tspan></text>
      <text
         xml:space="preserve"
         style="font-size:5.73467px;line-height:1ex;font-family:'Futura Book';-inkscape-font-specification:'Futura Book, ';letter-spacing:0px;word-spacing:0px;writing-mode:lr-tb;fill:#000000;fill-opacity:1;stroke:none;stroke-width:0.143593;stroke-linecap:butt;stroke-linejoin:miter;stroke-miterlimit:4;stroke-dasharray:none;stroke-opacity:1"
         x="212.35591"
         y="36.042297"
         id="text2756-6-9-2-0-3-0-4-5"
         inkscape:transform-center-x="21.323223"
         inkscape:transform-center-y="-17.018479"><tspan
           sodipodi:role="line"
           id="tspan2754-2-1-7-9-6-6-7-7"
           style="font-style:normal;font-variant:normal;font-weight:600;font-stretch:normal;font-family:'Open Sans';-inkscape-font-specification:'Open Sans Semi-Bold';fill:#000000;fill-opacity:1;stroke:none;stroke-width:0.143593;stroke-miterlimit:4;stroke-dasharray:none;stroke-opacity:1"
           x="212.35591"
           y="36.042297">SUNDAY</tspan></text>
      <text
         xml:space="preserve"
         style="font-size:8.46667px;line-height:1ex;font-family:'Futura Book';-inkscape-font-specification:'Futura Book, ';letter-spacing:3.175px;word-spacing:0px;writing-mode:lr-tb;fill:none;stroke:#000000;stroke-width:0.264583px;stroke-linecap:butt;stroke-linejoin:miter;stroke-opacity:1"
         x="116.29169"
         y="25.465815"
         id="text27706-9-0"><tspan
           sodipodi:role="line"
           id="tspan27704-3-8"
           style="font-style:normal;font-variant:normal;font-weight:normal;font-stretch:normal;font-size:8.46667px;font-family:'Open Sans';-inkscape-font-specification:'Open Sans';fill:#000000;fill-opacity:1;stroke:none;stroke-width:0.264583px"
           x="116.29169"
           y="25.465815">JULY 2024</tspan></text>
    </g>
    <g
       id="g38436-3-8-1"
       transform="translate(-0.43785206,92.288515)">
      <rect
         style="color:#000000;overflow:visible;vector-effect:non-scaling-stroke;fill:#000000;fill-opacity:1;stroke:#000000;stroke-width:0.00185208;stroke-linecap:round;stroke-linejoin:round;stroke-miterlimit:4;stroke-dasharray:none;stroke-dashoffset:0.56;-inkscape-stroke:hairline"
         id="rect1054-3-65-1-9"
         width="38"
         height="8"
         x="15.482892"
         y="30.144213" />
      <rect
         style="color:#000000;overflow:visible;vector-effect:non-scaling-stroke;fill:#000000;fill-opacity:1;stroke:#000000;stroke-width:0.00185208;stroke-linecap:round;stroke-linejoin:round;stroke-miterlimit:4;stroke-dasharray:none;stroke-dashoffset:0.56;-inkscape-stroke:hairline"
         id="rect1054-3-6-2-7-7"
         width="38"
         height="8"
         x="53.482895"
         y="30.144213" />
      <rect
         style="color:#000000;overflow:visible;vector-effect:non-scaling-stroke;fill:#000000;fill-opacity:1;stroke:#000000;stroke-width:0.00185208;stroke-linecap:round;stroke-linejoin:round;stroke-miterlimit:4;stroke-dasharray:none;stroke-dashoffset:0.56;-inkscape-stroke:hairline"
         id="rect1054-3-6-7-6-8-8"
         width="38"
         height="8"
         x="91.482895"
         y="30.144213" />
      <rect
         style="color:#000000;overflow:visible;vector-effect:non-scaling-stroke;fill:#000000;fill-opacity:1;stroke:#000000;stroke-width:0.00185208;stroke-linecap:round;stroke-linejoin:round;stroke-miterlimit:4;stroke-dasharray:none;stroke-dashoffset:0.56;-inkscape-stroke:hairline"
         id="rect1054-3-6-7-5-5-9-2"
         width="38"
         height="8"
         x="129.48289"
         y="30.144213" />
      <rect
         style="color:#000000;overflow:visible;vector-effect:non-scaling-stroke;fill:#a7a7a7;fill-opacity:1;stroke:#000000;stroke-width:0.00185208;stroke-linecap:round;stroke-linejoin:round;stroke-miterlimit:4;stroke-dasharray:none;stroke-dashoffset:0.56;-inkscape-stroke:hairline"
         id="rect1054-3-6-7-5-3-8-1-5"
         width="38"
         height="8"
         x="167.48289"
         y="30.144213" />
      <rect
         style="color:#000000;overflow:visible;vector-effect:non-scaling-stroke;fill:#a7a7a7;fill-opacity:1;stroke:#000000;stroke-width:0.00183309;stroke-linecap:round;stroke-linejoin:round;stroke-miterlimit:4;stroke-dasharray:none;stroke-dashoffset:0.56;-inkscape-stroke:hairline"
         id="rect1054-3-6-7-5-3-5-7-5-3"
         width="37.303482"
         height="7.9831309"
         x="205.49133"
         y="30.152647" />
      <g
         id="g42077-4"
         transform="translate(227.31191)">
        <rect
           style="color:#000000;overflow:visible;vector-effect:non-scaling-stroke;fill:#000000;fill-opacity:1;stroke:#000000;stroke-width:0.00185208;stroke-linecap:round;stroke-linejoin:round;stroke-miterlimit:4;stroke-dasharray:none;stroke-dashoffset:0.56;-inkscape-stroke:hairline"
           id="rect1054-32-0-9"
           width="38"
           height="8"
           x="15.482892"
           y="30.144213" />
        <text
           xml:space="preserve"
           style="font-size:5.73467px;line-height:1ex;font-family:'Futura Book';-inkscape-font-specification:'Futura Book, ';letter-spacing:0px;word-spacing:0px;writing-mode:lr-tb;fill:#e7e7e7;fill-opacity:1;stroke:none;stroke-width:0.143593;stroke-linecap:butt;stroke-linejoin:miter;stroke-miterlimit:4;stroke-dasharray:none;stroke-opacity:1"
           x="21.367073"
           y="36.045105"
           id="text2756-9-4-0"><tspan
             sodipodi:role="line"
             id="tspan2754-6-9-2"
             style="font-style:normal;font-variant:normal;font-weight:600;font-stretch:normal;font-family:'Open Sans';-inkscape-font-specification:'Open Sans Semi-Bold';fill:#e7e7e7;fill-opacity:1;stroke:none;stroke-width:0.143593;stroke-miterlimit:4;stroke-dasharray:none;stroke-opacity:1"
             x="21.367073"
             y="36.045105">MONDAY</tspan></text>
      </g>
      <text
         xml:space="preserve"
         style="font-size:5.73467px;line-height:1ex;font-family:'Futura Book';-inkscape-font-specification:'Futura Book, ';letter-spacing:0px;word-spacing:0px;writing-mode:lr-tb;fill:#e7e7e7;fill-opacity:1;stroke:none;stroke-width:0.143593;stroke-linecap:butt;stroke-linejoin:miter;stroke-miterlimit:4;stroke-dasharray:none;stroke-opacity:1"
         x="21.817894"
         y="36.042297"
         id="text2756-6-0-2-0"><tspan
           sodipodi:role="line"
           id="tspan2754-2-4-5-1"
           style="font-style:normal;font-variant:normal;font-weight:600;font-stretch:normal;font-family:'Open Sans';-inkscape-font-specification:'Open Sans Semi-Bold';fill:#e7e7e7;fill-opacity:1;stroke:none;stroke-width:0.143593;stroke-miterlimit:4;stroke-dasharray:none;stroke-opacity:1"
           x="21.817894"
           y="36.042297">TUESDAY</tspan></text>
      <text
         xml:space="preserve"
         style="font-size:5.73467px;line-height:1ex;font-family:'Futura Book';-inkscape-font-specification:'Futura Book, ';letter-spacing:0px;word-spacing:0px;writing-mode:lr-tb;fill:#e7e7e7;fill-opacity:1;stroke:none;stroke-width:0.143593;stroke-linecap:butt;stroke-linejoin:miter;stroke-miterlimit:4;stroke-dasharray:none;stroke-opacity:1"
         x="54.930267"
         y="36.042297"
         id="text2756-6-9-1-7-9"><tspan
           sodipodi:role="line"
           id="tspan2754-2-1-0-4-6"
           style="font-style:normal;font-variant:normal;font-weight:600;font-stretch:normal;font-family:'Open Sans';-inkscape-font-specification:'Open Sans Semi-Bold';fill:#e7e7e7;fill-opacity:1;stroke:none;stroke-width:0.143593;stroke-miterlimit:4;stroke-dasharray:none;stroke-opacity:1"
           x="54.930267"
           y="36.042297">WEDNESDAY</tspan></text>
      <text
         xml:space="preserve"
         style="font-size:5.73467px;line-height:1ex;font-family:'Futura Book';-inkscape-font-specification:'Futura Book, ';letter-spacing:0px;word-spacing:0px;writing-mode:lr-tb;fill:#e7e7e7;fill-opacity:1;stroke:none;stroke-width:0.143593;stroke-linecap:butt;stroke-linejoin:miter;stroke-miterlimit:4;stroke-dasharray:none;stroke-opacity:1"
         x="95.43219"
         y="36.042297"
         id="text2756-6-9-2-4-9-2"
         inkscape:transform-center-x="21.323223"
         inkscape:transform-center-y="-17.018479"><tspan
           sodipodi:role="line"
           id="tspan2754-2-1-7-8-9-1"
           style="font-style:normal;font-variant:normal;font-weight:600;font-stretch:normal;font-family:'Open Sans';-inkscape-font-specification:'Open Sans Semi-Bold';fill:#e7e7e7;fill-opacity:1;stroke:none;stroke-width:0.143593;stroke-miterlimit:4;stroke-dasharray:none;stroke-opacity:1"
           x="95.43219"
           y="36.042297">THURSDAY</tspan></text>
      <text
         xml:space="preserve"
         style="font-size:5.73467px;line-height:1ex;font-family:'Futura Book';-inkscape-font-specification:'Futura Book, ';letter-spacing:0px;word-spacing:0px;writing-mode:lr-tb;fill:#e7e7e7;fill-opacity:1;stroke:none;stroke-width:0.143593;stroke-linecap:butt;stroke-linejoin:miter;stroke-miterlimit:4;stroke-dasharray:none;stroke-opacity:1"
         x="138.28201"
         y="36.049297"
         id="text2756-6-9-2-0-7-4-2"
         inkscape:transform-center-x="21.323223"
         inkscape:transform-center-y="-17.018479"><tspan
           sodipodi:role="line"
           id="tspan2754-2-1-7-9-0-5-0"
           style="font-style:normal;font-variant:normal;font-weight:600;font-stretch:normal;font-family:'Open Sans';-inkscape-font-specification:'Open Sans Semi-Bold';fill:#e7e7e7;fill-opacity:1;stroke:none;stroke-width:0.143593;stroke-miterlimit:4;stroke-dasharray:none;stroke-opacity:1"
           x="138.28201"
           y="36.049297">FRIDAY</tspan></text>
      <text
         xml:space="preserve"
         style="font-size:5.73467px;line-height:1ex;font-family:'Futura Book';-inkscape-font-specification:'Futura Book, ';letter-spacing:0px;word-spacing:0px;writing-mode:lr-tb;fill:#000000;fill-opacity:1;stroke:none;stroke-width:0.143593;stroke-linecap:butt;stroke-linejoin:miter;stroke-miterlimit:4;stroke-dasharray:none;stroke-opacity:1"
         x="171.59039"
         y="36.042297"
         id="text2756-6-9-2-0-3-8-9-7"
         inkscape:transform-center-x="21.323223"
         inkscape:transform-center-y="-17.018479"><tspan
           sodipodi:role="line"
           id="tspan2754-2-1-7-9-6-62-3-3"
           style="font-style:normal;font-variant:normal;font-weight:600;font-stretch:normal;font-family:'Open Sans';-inkscape-font-specification:'Open Sans Semi-Bold';fill:#000000;fill-opacity:1;stroke:none;stroke-width:0.143593;stroke-miterlimit:4;stroke-dasharray:none;stroke-opacity:1"
           x="171.59039"
           y="36.042297">SATURDAY</tspan></text>
      <text
         xml:space="preserve"
         style="font-size:5.73467px;line-height:1ex;font-family:'Futura Book';-inkscape-font-specification:'Futura Book, ';letter-spacing:0px;word-spacing:0px;writing-mode:lr-tb;fill:#000000;fill-opacity:1;stroke:none;stroke-width:0.143593;stroke-linecap:butt;stroke-linejoin:miter;stroke-miterlimit:4;stroke-dasharray:none;stroke-opacity:1"
         x="212.35591"
         y="36.042297"
         id="text2756-6-9-2-0-3-0-4-5-1"
         inkscape:transform-center-x="21.323223"
         inkscape:transform-center-y="-17.018479"><tspan
           sodipodi:role="line"
           id="tspan2754-2-1-7-9-6-6-7-7-1"
           style="font-style:normal;font-variant:normal;font-weight:600;font-stretch:normal;font-family:'Open Sans';-inkscape-font-specification:'Open Sans Semi-Bold';fill:#000000;fill-opacity:1;stroke:none;stroke-width:0.143593;stroke-miterlimit:4;stroke-dasharray:none;stroke-opacity:1"
           x="212.35591"
           y="36.042297">SUNDAY</tspan></text>
      <text
         xml:space="preserve"
         style="font-size:8.46667px;line-height:1ex;font-family:'Futura Book';-inkscape-font-specification:'Futura Book, ';letter-spacing:3.175px;word-spacing:0px;writing-mode:lr-tb;fill:none;stroke:#000000;stroke-width:0.264583px;stroke-linecap:butt;stroke-linejoin:miter;stroke-opacity:1"
         x="100.40015"
         y="25.465815"
         id="text27706-9-0-9"><tspan
           sodipodi:role="line"
           id="tspan27704-3-8-0"
           style="font-style:normal;font-variant:normal;font-weight:normal;font-stretch:normal;font-size:8.46667px;font-family:'Open Sans';-inkscape-font-specification:'Open Sans';fill:#000000;fill-opacity:1;stroke:none;stroke-width:0.264583px"
           x="100.40015"
           y="25.465815">OCTOBER 2024</tspan></text>
    </g>
    <g
       id="g38436-3-8-1-3"
       transform="translate(-0.43785206,62.760396)">
      <rect
         style="color:#000000;overflow:visible;vector-effect:non-scaling-stroke;fill:#000000;fill-opacity:1;stroke:#000000;stroke-width:0.00185208;stroke-linecap:round;stroke-linejoin:round;stroke-miterlimit:4;stroke-dasharray:none;stroke-dashoffset:0.56;-inkscape-stroke:hairline"
         id="rect1054-3-65-1-9-6"
         width="38"
         height="8"
         x="15.482892"
         y="30.144213" />
      <rect
         style="color:#000000;overflow:visible;vector-effect:non-scaling-stroke;fill:#000000;fill-opacity:1;stroke:#000000;stroke-width:0.00185208;stroke-linecap:round;stroke-linejoin:round;stroke-miterlimit:4;stroke-dasharray:none;stroke-dashoffset:0.56;-inkscape-stroke:hairline"
         id="rect1054-3-6-2-7-7-75"
         width="38"
         height="8"
         x="53.482895"
         y="30.144213" />
      <rect
         style="color:#000000;overflow:visible;vector-effect:non-scaling-stroke;fill:#000000;fill-opacity:1;stroke:#000000;stroke-width:0.00185208;stroke-linecap:round;stroke-linejoin:round;stroke-miterlimit:4;stroke-dasharray:none;stroke-dashoffset:0.56;-inkscape-stroke:hairline"
         id="rect1054-3-6-7-6-8-8-3"
         width="38"
         height="8"
         x="91.482895"
         y="30.144213" />
      <rect
         style="color:#000000;overflow:visible;vector-effect:non-scaling-stroke;fill:#000000;fill-opacity:1;stroke:#000000;stroke-width:0.00185208;stroke-linecap:round;stroke-linejoin:round;stroke-miterlimit:4;stroke-dasharray:none;stroke-dashoffset:0.56;-inkscape-stroke:hairline"
         id="rect1054-3-6-7-5-5-9-2-5"
         width="38"
         height="8"
         x="129.48289"
         y="30.144213" />
      <rect
         style="color:#000000;overflow:visible;vector-effect:non-scaling-stroke;fill:#a7a7a7;fill-opacity:1;stroke:#000000;stroke-width:0.00185208;stroke-linecap:round;stroke-linejoin:round;stroke-miterlimit:4;stroke-dasharray:none;stroke-dashoffset:0.56;-inkscape-stroke:hairline"
         id="rect1054-3-6-7-5-3-8-1-5-62"
         width="38"
         height="8"
         x="167.48289"
         y="30.144213" />
      <rect
         style="color:#000000;overflow:visible;vector-effect:non-scaling-stroke;fill:#a7a7a7;fill-opacity:1;stroke:#000000;stroke-width:0.00183309;stroke-linecap:round;stroke-linejoin:round;stroke-miterlimit:4;stroke-dasharray:none;stroke-dashoffset:0.56;-inkscape-stroke:hairline"
         id="rect1054-3-6-7-5-3-5-7-5-3-9"
         width="37.303482"
         height="7.9831309"
         x="205.49133"
         y="30.152647" />
      <g
         id="g42077-4-1"
         transform="translate(227.31191)">
        <rect
           style="color:#000000;overflow:visible;vector-effect:non-scaling-stroke;fill:#000000;fill-opacity:1;stroke:#000000;stroke-width:0.00185208;stroke-linecap:round;stroke-linejoin:round;stroke-miterlimit:4;stroke-dasharray:none;stroke-dashoffset:0.56;-inkscape-stroke:hairline"
           id="rect1054-32-0-9-2"
           width="38"
           height="8"
           x="15.482892"
           y="30.144213" />
        <text
           xml:space="preserve"
           style="font-size:5.73467px;line-height:1ex;font-family:'Futura Book';-inkscape-font-specification:'Futura Book, ';letter-spacing:0px;word-spacing:0px;writing-mode:lr-tb;fill:#e7e7e7;fill-opacity:1;stroke:none;stroke-width:0.143593;stroke-linecap:butt;stroke-linejoin:miter;stroke-miterlimit:4;stroke-dasharray:none;stroke-opacity:1"
           x="21.367073"
           y="36.045105"
           id="text2756-9-4-0-7"><tspan
             sodipodi:role="line"
             id="tspan2754-6-9-2-0"
             style="font-style:normal;font-variant:normal;font-weight:600;font-stretch:normal;font-family:'Open Sans';-inkscape-font-specification:'Open Sans Semi-Bold';fill:#e7e7e7;fill-opacity:1;stroke:none;stroke-width:0.143593;stroke-miterlimit:4;stroke-dasharray:none;stroke-opacity:1"
             x="21.367073"
             y="36.045105">MONDAY</tspan></text>
      </g>
      <text
         xml:space="preserve"
         style="font-size:5.73467px;line-height:1ex;font-family:'Futura Book';-inkscape-font-specification:'Futura Book, ';letter-spacing:0px;word-spacing:0px;writing-mode:lr-tb;fill:#e7e7e7;fill-opacity:1;stroke:none;stroke-width:0.143593;stroke-linecap:butt;stroke-linejoin:miter;stroke-miterlimit:4;stroke-dasharray:none;stroke-opacity:1"
         x="21.817894"
         y="36.042297"
         id="text2756-6-0-2-0-9"><tspan
           sodipodi:role="line"
           id="tspan2754-2-4-5-1-3"
           style="font-style:normal;font-variant:normal;font-weight:600;font-stretch:normal;font-family:'Open Sans';-inkscape-font-specification:'Open Sans Semi-Bold';fill:#e7e7e7;fill-opacity:1;stroke:none;stroke-width:0.143593;stroke-miterlimit:4;stroke-dasharray:none;stroke-opacity:1"
           x="21.817894"
           y="36.042297">TUESDAY</tspan></text>
      <text
         xml:space="preserve"
         style="font-size:5.73467px;line-height:1ex;font-family:'Futura Book';-inkscape-font-specification:'Futura Book, ';letter-spacing:0px;word-spacing:0px;writing-mode:lr-tb;fill:#e7e7e7;fill-opacity:1;stroke:none;stroke-width:0.143593;stroke-linecap:butt;stroke-linejoin:miter;stroke-miterlimit:4;stroke-dasharray:none;stroke-opacity:1"
         x="54.930267"
         y="36.042297"
         id="text2756-6-9-1-7-9-60"><tspan
           sodipodi:role="line"
           id="tspan2754-2-1-0-4-6-6"
           style="font-style:normal;font-variant:normal;font-weight:600;font-stretch:normal;font-family:'Open Sans';-inkscape-font-specification:'Open Sans Semi-Bold';fill:#e7e7e7;fill-opacity:1;stroke:none;stroke-width:0.143593;stroke-miterlimit:4;stroke-dasharray:none;stroke-opacity:1"
           x="54.930267"
           y="36.042297">WEDNESDAY</tspan></text>
      <text
         xml:space="preserve"
         style="font-size:5.73467px;line-height:1ex;font-family:'Futura Book';-inkscape-font-specification:'Futura Book, ';letter-spacing:0px;word-spacing:0px;writing-mode:lr-tb;fill:#e7e7e7;fill-opacity:1;stroke:none;stroke-width:0.143593;stroke-linecap:butt;stroke-linejoin:miter;stroke-miterlimit:4;stroke-dasharray:none;stroke-opacity:1"
         x="95.43219"
         y="36.042297"
         id="text2756-6-9-2-4-9-2-2"
         inkscape:transform-center-x="21.323223"
         inkscape:transform-center-y="-17.018479"><tspan
           sodipodi:role="line"
           id="tspan2754-2-1-7-8-9-1-61"
           style="font-style:normal;font-variant:normal;font-weight:600;font-stretch:normal;font-family:'Open Sans';-inkscape-font-specification:'Open Sans Semi-Bold';fill:#e7e7e7;fill-opacity:1;stroke:none;stroke-width:0.143593;stroke-miterlimit:4;stroke-dasharray:none;stroke-opacity:1"
           x="95.43219"
           y="36.042297">THURSDAY</tspan></text>
      <text
         xml:space="preserve"
         style="font-size:5.73467px;line-height:1ex;font-family:'Futura Book';-inkscape-font-specification:'Futura Book, ';letter-spacing:0px;word-spacing:0px;writing-mode:lr-tb;fill:#e7e7e7;fill-opacity:1;stroke:none;stroke-width:0.143593;stroke-linecap:butt;stroke-linejoin:miter;stroke-miterlimit:4;stroke-dasharray:none;stroke-opacity:1"
         x="138.28201"
         y="36.049297"
         id="text2756-6-9-2-0-7-4-2-8"
         inkscape:transform-center-x="21.323223"
         inkscape:transform-center-y="-17.018479"><tspan
           sodipodi:role="line"
           id="tspan2754-2-1-7-9-0-5-0-7"
           style="font-style:normal;font-variant:normal;font-weight:600;font-stretch:normal;font-family:'Open Sans';-inkscape-font-specification:'Open Sans Semi-Bold';fill:#e7e7e7;fill-opacity:1;stroke:none;stroke-width:0.143593;stroke-miterlimit:4;stroke-dasharray:none;stroke-opacity:1"
           x="138.28201"
           y="36.049297">FRIDAY</tspan></text>
      <text
         xml:space="preserve"
         style="font-size:5.73467px;line-height:1ex;font-family:'Futura Book';-inkscape-font-specification:'Futura Book, ';letter-spacing:0px;word-spacing:0px;writing-mode:lr-tb;fill:#000000;fill-opacity:1;stroke:none;stroke-width:0.143593;stroke-linecap:butt;stroke-linejoin:miter;stroke-miterlimit:4;stroke-dasharray:none;stroke-opacity:1"
         x="171.59039"
         y="36.042297"
         id="text2756-6-9-2-0-3-8-9-7-9"
         inkscape:transform-center-x="21.323223"
         inkscape:transform-center-y="-17.018479"><tspan
           sodipodi:role="line"
           id="tspan2754-2-1-7-9-6-62-3-3-2"
           style="font-style:normal;font-variant:normal;font-weight:600;font-stretch:normal;font-family:'Open Sans';-inkscape-font-specification:'Open Sans Semi-Bold';fill:#000000;fill-opacity:1;stroke:none;stroke-width:0.143593;stroke-miterlimit:4;stroke-dasharray:none;stroke-opacity:1"
           x="171.59039"
           y="36.042297">SATURDAY</tspan></text>
      <text
         xml:space="preserve"
         style="font-size:5.73467px;line-height:1ex;font-family:'Futura Book';-inkscape-font-specification:'Futura Book, ';letter-spacing:0px;word-spacing:0px;writing-mode:lr-tb;fill:#000000;fill-opacity:1;stroke:none;stroke-width:0.143593;stroke-linecap:butt;stroke-linejoin:miter;stroke-miterlimit:4;stroke-dasharray:none;stroke-opacity:1"
         x="212.35591"
         y="36.042297"
         id="text2756-6-9-2-0-3-0-4-5-1-0"
         inkscape:transform-center-x="21.323223"
         inkscape:transform-center-y="-17.018479"><tspan
           sodipodi:role="line"
           id="tspan2754-2-1-7-9-6-6-7-7-1-2"
           style="font-style:normal;font-variant:normal;font-weight:600;font-stretch:normal;font-family:'Open Sans';-inkscape-font-specification:'Open Sans Semi-Bold';fill:#000000;fill-opacity:1;stroke:none;stroke-width:0.143593;stroke-miterlimit:4;stroke-dasharray:none;stroke-opacity:1"
           x="212.35591"
           y="36.042297">SUNDAY</tspan></text>
      <text
         xml:space="preserve"
         style="font-size:8.46667px;line-height:1ex;font-family:'Futura Book';-inkscape-font-specification:'Futura Book, ';letter-spacing:3.175px;word-spacing:0px;writing-mode:lr-tb;fill:none;stroke:#000000;stroke-width:0.264583px;stroke-linecap:butt;stroke-linejoin:miter;stroke-opacity:1"
         x="93.126175"
         y="25.465815"
         id="text27706-9-0-9-3"><tspan
           sodipodi:role="line"
           id="tspan27704-3-8-0-75"
           style="font-style:normal;font-variant:normal;font-weight:normal;font-stretch:normal;font-size:8.46667px;font-family:'Open Sans';-inkscape-font-specification:'Open Sans';fill:#000000;fill-opacity:1;stroke:none;stroke-width:0.264583px"
           x="93.126175"
           y="25.465815">SEPTEMBER 2024</tspan></text>
    </g>
    <g
       id="g38436-3-8-1-3-3"
       transform="translate(-0.43785206,33.232286)">
      <rect
         style="color:#000000;overflow:visible;vector-effect:non-scaling-stroke;fill:#000000;fill-opacity:1;stroke:#000000;stroke-width:0.00185208;stroke-linecap:round;stroke-linejoin:round;stroke-miterlimit:4;stroke-dasharray:none;stroke-dashoffset:0.56;-inkscape-stroke:hairline"
         id="rect1054-3-65-1-9-6-2"
         width="38"
         height="8"
         x="15.482892"
         y="30.144213" />
      <rect
         style="color:#000000;overflow:visible;vector-effect:non-scaling-stroke;fill:#000000;fill-opacity:1;stroke:#000000;stroke-width:0.00185208;stroke-linecap:round;stroke-linejoin:round;stroke-miterlimit:4;stroke-dasharray:none;stroke-dashoffset:0.56;-inkscape-stroke:hairline"
         id="rect1054-3-6-2-7-7-75-0"
         width="38"
         height="8"
         x="53.482895"
         y="30.144213" />
      <rect
         style="color:#000000;overflow:visible;vector-effect:non-scaling-stroke;fill:#000000;fill-opacity:1;stroke:#000000;stroke-width:0.00185208;stroke-linecap:round;stroke-linejoin:round;stroke-miterlimit:4;stroke-dasharray:none;stroke-dashoffset:0.56;-inkscape-stroke:hairline"
         id="rect1054-3-6-7-6-8-8-3-6"
         width="38"
         height="8"
         x="91.482895"
         y="30.144213" />
      <rect
         style="color:#000000;overflow:visible;vector-effect:non-scaling-stroke;fill:#000000;fill-opacity:1;stroke:#000000;stroke-width:0.00185208;stroke-linecap:round;stroke-linejoin:round;stroke-miterlimit:4;stroke-dasharray:none;stroke-dashoffset:0.56;-inkscape-stroke:hairline"
         id="rect1054-3-6-7-5-5-9-2-5-1"
         width="38"
         height="8"
         x="129.48289"
         y="30.144213" />
      <rect
         style="color:#000000;overflow:visible;vector-effect:non-scaling-stroke;fill:#a7a7a7;fill-opacity:1;stroke:#000000;stroke-width:0.00185208;stroke-linecap:round;stroke-linejoin:round;stroke-miterlimit:4;stroke-dasharray:none;stroke-dashoffset:0.56;-inkscape-stroke:hairline"
         id="rect1054-3-6-7-5-3-8-1-5-62-5"
         width="38"
         height="8"
         x="167.48289"
         y="30.144213" />
      <rect
         style="color:#000000;overflow:visible;vector-effect:non-scaling-stroke;fill:#a7a7a7;fill-opacity:1;stroke:#000000;stroke-width:0.00183309;stroke-linecap:round;stroke-linejoin:round;stroke-miterlimit:4;stroke-dasharray:none;stroke-dashoffset:0.56;-inkscape-stroke:hairline"
         id="rect1054-3-6-7-5-3-5-7-5-3-9-5"
         width="37.303482"
         height="7.9831309"
         x="205.49133"
         y="30.152647" />
      <g
         id="g42077-4-1-4"
         transform="translate(227.31191)">
        <rect
           style="color:#000000;overflow:visible;vector-effect:non-scaling-stroke;fill:#000000;fill-opacity:1;stroke:#000000;stroke-width:0.00185208;stroke-linecap:round;stroke-linejoin:round;stroke-miterlimit:4;stroke-dasharray:none;stroke-dashoffset:0.56;-inkscape-stroke:hairline"
           id="rect1054-32-0-9-2-7"
           width="38"
           height="8"
           x="15.482892"
           y="30.144213" />
        <text
           xml:space="preserve"
           style="font-size:5.73467px;line-height:1ex;font-family:'Futura Book';-inkscape-font-specification:'Futura Book, ';letter-spacing:0px;word-spacing:0px;writing-mode:lr-tb;fill:#e7e7e7;fill-opacity:1;stroke:none;stroke-width:0.143593;stroke-linecap:butt;stroke-linejoin:miter;stroke-miterlimit:4;stroke-dasharray:none;stroke-opacity:1"
           x="21.367073"
           y="36.045105"
           id="text2756-9-4-0-7-6"><tspan
             sodipodi:role="line"
             id="tspan2754-6-9-2-0-5"
             style="font-style:normal;font-variant:normal;font-weight:600;font-stretch:normal;font-family:'Open Sans';-inkscape-font-specification:'Open Sans Semi-Bold';fill:#e7e7e7;fill-opacity:1;stroke:none;stroke-width:0.143593;stroke-miterlimit:4;stroke-dasharray:none;stroke-opacity:1"
             x="21.367073"
             y="36.045105">MONDAY</tspan></text>
      </g>
      <text
         xml:space="preserve"
         style="font-size:5.73467px;line-height:1ex;font-family:'Futura Book';-inkscape-font-specification:'Futura Book, ';letter-spacing:0px;word-spacing:0px;writing-mode:lr-tb;fill:#e7e7e7;fill-opacity:1;stroke:none;stroke-width:0.143593;stroke-linecap:butt;stroke-linejoin:miter;stroke-miterlimit:4;stroke-dasharray:none;stroke-opacity:1"
         x="21.817894"
         y="36.042297"
         id="text2756-6-0-2-0-9-6"><tspan
           sodipodi:role="line"
           id="tspan2754-2-4-5-1-3-9"
           style="font-style:normal;font-variant:normal;font-weight:600;font-stretch:normal;font-family:'Open Sans';-inkscape-font-specification:'Open Sans Semi-Bold';fill:#e7e7e7;fill-opacity:1;stroke:none;stroke-width:0.143593;stroke-miterlimit:4;stroke-dasharray:none;stroke-opacity:1"
           x="21.817894"
           y="36.042297">TUESDAY</tspan></text>
      <text
         xml:space="preserve"
         style="font-size:5.73467px;line-height:1ex;font-family:'Futura Book';-inkscape-font-specification:'Futura Book, ';letter-spacing:0px;word-spacing:0px;writing-mode:lr-tb;fill:#e7e7e7;fill-opacity:1;stroke:none;stroke-width:0.143593;stroke-linecap:butt;stroke-linejoin:miter;stroke-miterlimit:4;stroke-dasharray:none;stroke-opacity:1"
         x="54.930267"
         y="36.042297"
         id="text2756-6-9-1-7-9-60-3"><tspan
           sodipodi:role="line"
           id="tspan2754-2-1-0-4-6-6-7"
           style="font-style:normal;font-variant:normal;font-weight:600;font-stretch:normal;font-family:'Open Sans';-inkscape-font-specification:'Open Sans Semi-Bold';fill:#e7e7e7;fill-opacity:1;stroke:none;stroke-width:0.143593;stroke-miterlimit:4;stroke-dasharray:none;stroke-opacity:1"
           x="54.930267"
           y="36.042297">WEDNESDAY</tspan></text>
      <text
         xml:space="preserve"
         style="font-size:5.73467px;line-height:1ex;font-family:'Futura Book';-inkscape-font-specification:'Futura Book, ';letter-spacing:0px;word-spacing:0px;writing-mode:lr-tb;fill:#e7e7e7;fill-opacity:1;stroke:none;stroke-width:0.143593;stroke-linecap:butt;stroke-linejoin:miter;stroke-miterlimit:4;stroke-dasharray:none;stroke-opacity:1"
         x="95.43219"
         y="36.042297"
         id="text2756-6-9-2-4-9-2-2-4"
         inkscape:transform-center-x="21.323223"
         inkscape:transform-center-y="-17.018479"><tspan
           sodipodi:role="line"
           id="tspan2754-2-1-7-8-9-1-61-5"
           style="font-style:normal;font-variant:normal;font-weight:600;font-stretch:normal;font-family:'Open Sans';-inkscape-font-specification:'Open Sans Semi-Bold';fill:#e7e7e7;fill-opacity:1;stroke:none;stroke-width:0.143593;stroke-miterlimit:4;stroke-dasharray:none;stroke-opacity:1"
           x="95.43219"
           y="36.042297">THURSDAY</tspan></text>
      <text
         xml:space="preserve"
         style="font-size:5.73467px;line-height:1ex;font-family:'Futura Book';-inkscape-font-specification:'Futura Book, ';letter-spacing:0px;word-spacing:0px;writing-mode:lr-tb;fill:#e7e7e7;fill-opacity:1;stroke:none;stroke-width:0.143593;stroke-linecap:butt;stroke-linejoin:miter;stroke-miterlimit:4;stroke-dasharray:none;stroke-opacity:1"
         x="138.28201"
         y="36.049297"
         id="text2756-6-9-2-0-7-4-2-8-2"
         inkscape:transform-center-x="21.323223"
         inkscape:transform-center-y="-17.018479"><tspan
           sodipodi:role="line"
           id="tspan2754-2-1-7-9-0-5-0-7-5"
           style="font-style:normal;font-variant:normal;font-weight:600;font-stretch:normal;font-family:'Open Sans';-inkscape-font-specification:'Open Sans Semi-Bold';fill:#e7e7e7;fill-opacity:1;stroke:none;stroke-width:0.143593;stroke-miterlimit:4;stroke-dasharray:none;stroke-opacity:1"
           x="138.28201"
           y="36.049297">FRIDAY</tspan></text>
      <text
         xml:space="preserve"
         style="font-size:5.73467px;line-height:1ex;font-family:'Futura Book';-inkscape-font-specification:'Futura Book, ';letter-spacing:0px;word-spacing:0px;writing-mode:lr-tb;fill:#000000;fill-opacity:1;stroke:none;stroke-width:0.143593;stroke-linecap:butt;stroke-linejoin:miter;stroke-miterlimit:4;stroke-dasharray:none;stroke-opacity:1"
         x="171.59039"
         y="36.042297"
         id="text2756-6-9-2-0-3-8-9-7-9-4"
         inkscape:transform-center-x="21.323223"
         inkscape:transform-center-y="-17.018479"><tspan
           sodipodi:role="line"
           id="tspan2754-2-1-7-9-6-62-3-3-2-7"
           style="font-style:normal;font-variant:normal;font-weight:600;font-stretch:normal;font-family:'Open Sans';-inkscape-font-specification:'Open Sans Semi-Bold';fill:#000000;fill-opacity:1;stroke:none;stroke-width:0.143593;stroke-miterlimit:4;stroke-dasharray:none;stroke-opacity:1"
           x="171.59039"
           y="36.042297">SATURDAY</tspan></text>
      <text
         xml:space="preserve"
         style="font-size:5.73467px;line-height:1ex;font-family:'Futura Book';-inkscape-font-specification:'Futura Book, ';letter-spacing:0px;word-spacing:0px;writing-mode:lr-tb;fill:#000000;fill-opacity:1;stroke:none;stroke-width:0.143593;stroke-linecap:butt;stroke-linejoin:miter;stroke-miterlimit:4;stroke-dasharray:none;stroke-opacity:1"
         x="212.35591"
         y="36.042297"
         id="text2756-6-9-2-0-3-0-4-5-1-0-4"
         inkscape:transform-center-x="21.323223"
         inkscape:transform-center-y="-17.018479"><tspan
           sodipodi:role="line"
           id="tspan2754-2-1-7-9-6-6-7-7-1-2-4"
           style="font-style:normal;font-variant:normal;font-weight:600;font-stretch:normal;font-family:'Open Sans';-inkscape-font-specification:'Open Sans Semi-Bold';fill:#000000;fill-opacity:1;stroke:none;stroke-width:0.143593;stroke-miterlimit:4;stroke-dasharray:none;stroke-opacity:1"
           x="212.35591"
           y="36.042297">SUNDAY</tspan></text>
      <text
         xml:space="preserve"
         style="font-size:8.46667px;line-height:1ex;font-family:'Futura Book';-inkscape-font-specification:'Futura Book, ';letter-spacing:3.175px;word-spacing:0px;writing-mode:lr-tb;fill:none;stroke:#000000;stroke-width:0.264583px;stroke-linecap:butt;stroke-linejoin:miter;stroke-opacity:1"
         x="104.97661"
         y="25.465815"
         id="text27706-9-0-9-3-3"><tspan
           sodipodi:role="line"
           id="tspan27704-3-8-0-75-0"
           style="font-style:normal;font-variant:normal;font-weight:normal;font-stretch:normal;font-size:8.46667px;font-family:'Open Sans';-inkscape-font-specification:'Open Sans';fill:#000000;fill-opacity:1;stroke:none;stroke-width:0.264583px"
           x="104.97661"
           y="25.465815">AUGUST 2024</tspan></text>
    </g>
    <g
       id="g38436-3-8-1-5"
       transform="translate(-0.43785206,121.81662)">
      <rect
         style="color:#000000;overflow:visible;vector-effect:non-scaling-stroke;fill:#000000;fill-opacity:1;stroke:#000000;stroke-width:0.00185208;stroke-linecap:round;stroke-linejoin:round;stroke-miterlimit:4;stroke-dasharray:none;stroke-dashoffset:0.56;-inkscape-stroke:hairline"
         id="rect1054-3-65-1-9-7"
         width="38"
         height="8"
         x="15.482892"
         y="30.144213" />
      <rect
         style="color:#000000;overflow:visible;vector-effect:non-scaling-stroke;fill:#000000;fill-opacity:1;stroke:#000000;stroke-width:0.00185208;stroke-linecap:round;stroke-linejoin:round;stroke-miterlimit:4;stroke-dasharray:none;stroke-dashoffset:0.56;-inkscape-stroke:hairline"
         id="rect1054-3-6-2-7-7-7"
         width="38"
         height="8"
         x="53.482895"
         y="30.144213" />
      <rect
         style="color:#000000;overflow:visible;vector-effect:non-scaling-stroke;fill:#000000;fill-opacity:1;stroke:#000000;stroke-width:0.00185208;stroke-linecap:round;stroke-linejoin:round;stroke-miterlimit:4;stroke-dasharray:none;stroke-dashoffset:0.56;-inkscape-stroke:hairline"
         id="rect1054-3-6-7-6-8-8-4"
         width="38"
         height="8"
         x="91.482895"
         y="30.144213" />
      <rect
         style="color:#000000;overflow:visible;vector-effect:non-scaling-stroke;fill:#000000;fill-opacity:1;stroke:#000000;stroke-width:0.00185208;stroke-linecap:round;stroke-linejoin:round;stroke-miterlimit:4;stroke-dasharray:none;stroke-dashoffset:0.56;-inkscape-stroke:hairline"
         id="rect1054-3-6-7-5-5-9-2-0"
         width="38"
         height="8"
         x="129.48289"
         y="30.144213" />
      <rect
         style="color:#000000;overflow:visible;vector-effect:non-scaling-stroke;fill:#a7a7a7;fill-opacity:1;stroke:#000000;stroke-width:0.00185208;stroke-linecap:round;stroke-linejoin:round;stroke-miterlimit:4;stroke-dasharray:none;stroke-dashoffset:0.56;-inkscape-stroke:hairline"
         id="rect1054-3-6-7-5-3-8-1-5-6"
         width="38"
         height="8"
         x="167.48289"
         y="30.144213" />
      <rect
         style="color:#000000;overflow:visible;vector-effect:non-scaling-stroke;fill:#a7a7a7;fill-opacity:1;stroke:#000000;stroke-width:0.00183309;stroke-linecap:round;stroke-linejoin:round;stroke-miterlimit:4;stroke-dasharray:none;stroke-dashoffset:0.56;-inkscape-stroke:hairline"
         id="rect1054-3-6-7-5-3-5-7-5-3-4"
         width="37.303482"
         height="7.9831309"
         x="205.49133"
         y="30.152647" />
      <g
         id="g42077-4-7"
         transform="translate(227.31191)">
        <rect
           style="color:#000000;overflow:visible;vector-effect:non-scaling-stroke;fill:#000000;fill-opacity:1;stroke:#000000;stroke-width:0.00185208;stroke-linecap:round;stroke-linejoin:round;stroke-miterlimit:4;stroke-dasharray:none;stroke-dashoffset:0.56;-inkscape-stroke:hairline"
           id="rect1054-32-0-9-4"
           width="38"
           height="8"
           x="15.482892"
           y="30.144213" />
        <text
           xml:space="preserve"
           style="font-size:5.73467px;line-height:1ex;font-family:'Futura Book';-inkscape-font-specification:'Futura Book, ';letter-spacing:0px;word-spacing:0px;writing-mode:lr-tb;fill:#e7e7e7;fill-opacity:1;stroke:none;stroke-width:0.143593;stroke-linecap:butt;stroke-linejoin:miter;stroke-miterlimit:4;stroke-dasharray:none;stroke-opacity:1"
           x="21.367073"
           y="36.045105"
           id="text2756-9-4-0-8"><tspan
             sodipodi:role="line"
             id="tspan2754-6-9-2-5"
             style="font-style:normal;font-variant:normal;font-weight:600;font-stretch:normal;font-family:'Open Sans';-inkscape-font-specification:'Open Sans Semi-Bold';fill:#e7e7e7;fill-opacity:1;stroke:none;stroke-width:0.143593;stroke-miterlimit:4;stroke-dasharray:none;stroke-opacity:1"
             x="21.367073"
             y="36.045105">MONDAY</tspan></text>
      </g>
      <text
         xml:space="preserve"
         style="font-size:5.73467px;line-height:1ex;font-family:'Futura Book';-inkscape-font-specification:'Futura Book, ';letter-spacing:0px;word-spacing:0px;writing-mode:lr-tb;fill:#e7e7e7;fill-opacity:1;stroke:none;stroke-width:0.143593;stroke-linecap:butt;stroke-linejoin:miter;stroke-miterlimit:4;stroke-dasharray:none;stroke-opacity:1"
         x="21.817894"
         y="36.042297"
         id="text2756-6-0-2-0-8"><tspan
           sodipodi:role="line"
           id="tspan2754-2-4-5-1-2"
           style="font-style:normal;font-variant:normal;font-weight:600;font-stretch:normal;font-family:'Open Sans';-inkscape-font-specification:'Open Sans Semi-Bold';fill:#e7e7e7;fill-opacity:1;stroke:none;stroke-width:0.143593;stroke-miterlimit:4;stroke-dasharray:none;stroke-opacity:1"
           x="21.817894"
           y="36.042297">TUESDAY</tspan></text>
      <text
         xml:space="preserve"
         style="font-size:5.73467px;line-height:1ex;font-family:'Futura Book';-inkscape-font-specification:'Futura Book, ';letter-spacing:0px;word-spacing:0px;writing-mode:lr-tb;fill:#e7e7e7;fill-opacity:1;stroke:none;stroke-width:0.143593;stroke-linecap:butt;stroke-linejoin:miter;stroke-miterlimit:4;stroke-dasharray:none;stroke-opacity:1"
         x="54.930267"
         y="36.042297"
         id="text2756-6-9-1-7-9-6"><tspan
           sodipodi:role="line"
           id="tspan2754-2-1-0-4-6-0"
           style="font-style:normal;font-variant:normal;font-weight:600;font-stretch:normal;font-family:'Open Sans';-inkscape-font-specification:'Open Sans Semi-Bold';fill:#e7e7e7;fill-opacity:1;stroke:none;stroke-width:0.143593;stroke-miterlimit:4;stroke-dasharray:none;stroke-opacity:1"
           x="54.930267"
           y="36.042297">WEDNESDAY</tspan></text>
      <text
         xml:space="preserve"
         style="font-size:5.73467px;line-height:1ex;font-family:'Futura Book';-inkscape-font-specification:'Futura Book, ';letter-spacing:0px;word-spacing:0px;writing-mode:lr-tb;fill:#e7e7e7;fill-opacity:1;stroke:none;stroke-width:0.143593;stroke-linecap:butt;stroke-linejoin:miter;stroke-miterlimit:4;stroke-dasharray:none;stroke-opacity:1"
         x="95.43219"
         y="36.042297"
         id="text2756-6-9-2-4-9-2-6"
         inkscape:transform-center-x="21.323223"
         inkscape:transform-center-y="-17.018479"><tspan
           sodipodi:role="line"
           id="tspan2754-2-1-7-8-9-1-6"
           style="font-style:normal;font-variant:normal;font-weight:600;font-stretch:normal;font-family:'Open Sans';-inkscape-font-specification:'Open Sans Semi-Bold';fill:#e7e7e7;fill-opacity:1;stroke:none;stroke-width:0.143593;stroke-miterlimit:4;stroke-dasharray:none;stroke-opacity:1"
           x="95.43219"
           y="36.042297">THURSDAY</tspan></text>
      <text
         xml:space="preserve"
         style="font-size:5.73467px;line-height:1ex;font-family:'Futura Book';-inkscape-font-specification:'Futura Book, ';letter-spacing:0px;word-spacing:0px;writing-mode:lr-tb;fill:#e7e7e7;fill-opacity:1;stroke:none;stroke-width:0.143593;stroke-linecap:butt;stroke-linejoin:miter;stroke-miterlimit:4;stroke-dasharray:none;stroke-opacity:1"
         x="138.28201"
         y="36.049297"
         id="text2756-6-9-2-0-7-4-2-4"
         inkscape:transform-center-x="21.323223"
         inkscape:transform-center-y="-17.018479"><tspan
           sodipodi:role="line"
           id="tspan2754-2-1-7-9-0-5-0-6"
           style="font-style:normal;font-variant:normal;font-weight:600;font-stretch:normal;font-family:'Open Sans';-inkscape-font-specification:'Open Sans Semi-Bold';fill:#e7e7e7;fill-opacity:1;stroke:none;stroke-width:0.143593;stroke-miterlimit:4;stroke-dasharray:none;stroke-opacity:1"
           x="138.28201"
           y="36.049297">FRIDAY</tspan></text>
      <text
         xml:space="preserve"
         style="font-size:5.73467px;line-height:1ex;font-family:'Futura Book';-inkscape-font-specification:'Futura Book, ';letter-spacing:0px;word-spacing:0px;writing-mode:lr-tb;fill:#000000;fill-opacity:1;stroke:none;stroke-width:0.143593;stroke-linecap:butt;stroke-linejoin:miter;stroke-miterlimit:4;stroke-dasharray:none;stroke-opacity:1"
         x="171.59039"
         y="36.042297"
         id="text2756-6-9-2-0-3-8-9-7-2"
         inkscape:transform-center-x="21.323223"
         inkscape:transform-center-y="-17.018479"><tspan
           sodipodi:role="line"
           id="tspan2754-2-1-7-9-6-62-3-3-8"
           style="font-style:normal;font-variant:normal;font-weight:600;font-stretch:normal;font-family:'Open Sans';-inkscape-font-specification:'Open Sans Semi-Bold';fill:#000000;fill-opacity:1;stroke:none;stroke-width:0.143593;stroke-miterlimit:4;stroke-dasharray:none;stroke-opacity:1"
           x="171.59039"
           y="36.042297">SATURDAY</tspan></text>
      <text
         xml:space="preserve"
         style="font-size:5.73467px;line-height:1ex;font-family:'Futura Book';-inkscape-font-specification:'Futura Book, ';letter-spacing:0px;word-spacing:0px;writing-mode:lr-tb;fill:#000000;fill-opacity:1;stroke:none;stroke-width:0.143593;stroke-linecap:butt;stroke-linejoin:miter;stroke-miterlimit:4;stroke-dasharray:none;stroke-opacity:1"
         x="212.35591"
         y="36.042297"
         id="text2756-6-9-2-0-3-0-4-5-1-9"
         inkscape:transform-center-x="21.323223"
         inkscape:transform-center-y="-17.018479"><tspan
           sodipodi:role="line"
           id="tspan2754-2-1-7-9-6-6-7-7-1-6"
           style="font-style:normal;font-variant:normal;font-weight:600;font-stretch:normal;font-family:'Open Sans';-inkscape-font-specification:'Open Sans Semi-Bold';fill:#000000;fill-opacity:1;stroke:none;stroke-width:0.143593;stroke-miterlimit:4;stroke-dasharray:none;stroke-opacity:1"
           x="212.35591"
           y="36.042297">SUNDAY</tspan></text>
      <text
         xml:space="preserve"
         style="font-size:8.46667px;line-height:1ex;font-family:'Futura Book';-inkscape-font-specification:'Futura Book, ';letter-spacing:3.175px;word-spacing:0px;writing-mode:lr-tb;fill:none;stroke:#000000;stroke-width:0.264583px;stroke-linecap:butt;stroke-linejoin:miter;stroke-opacity:1"
         x="95.077477"
         y="25.465815"
         id="text27706-9-0-9-0"><tspan
           sodipodi:role="line"
           id="tspan27704-3-8-0-7"
           style="font-style:normal;font-variant:normal;font-weight:normal;font-stretch:normal;font-size:8.46667px;font-family:'Open Sans';-inkscape-font-specification:'Open Sans';fill:#000000;fill-opacity:1;stroke:none;stroke-width:0.264583px"
           x="95.077477"
           y="25.465815">NOVEMBER 2024</tspan></text>
    </g>
    <g
       id="g38436-3-8-1-5-0"
       transform="translate(-0.43785206,151.34473)">
      <rect
         style="color:#000000;overflow:visible;vector-effect:non-scaling-stroke;fill:#000000;fill-opacity:1;stroke:#000000;stroke-width:0.00185208;stroke-linecap:round;stroke-linejoin:round;stroke-miterlimit:4;stroke-dasharray:none;stroke-dashoffset:0.56;-inkscape-stroke:hairline"
         id="rect1054-3-65-1-9-7-0"
         width="38"
         height="8"
         x="15.482892"
         y="30.144213" />
      <rect
         style="color:#000000;overflow:visible;vector-effect:non-scaling-stroke;fill:#000000;fill-opacity:1;stroke:#000000;stroke-width:0.00185208;stroke-linecap:round;stroke-linejoin:round;stroke-miterlimit:4;stroke-dasharray:none;stroke-dashoffset:0.56;-inkscape-stroke:hairline"
         id="rect1054-3-6-2-7-7-7-1"
         width="38"
         height="8"
         x="53.482895"
         y="30.144213" />
      <rect
         style="color:#000000;overflow:visible;vector-effect:non-scaling-stroke;fill:#000000;fill-opacity:1;stroke:#000000;stroke-width:0.00185208;stroke-linecap:round;stroke-linejoin:round;stroke-miterlimit:4;stroke-dasharray:none;stroke-dashoffset:0.56;-inkscape-stroke:hairline"
         id="rect1054-3-6-7-6-8-8-4-3"
         width="38"
         height="8"
         x="91.482895"
         y="30.144213" />
      <rect
         style="color:#000000;overflow:visible;vector-effect:non-scaling-stroke;fill:#000000;fill-opacity:1;stroke:#000000;stroke-width:0.00185208;stroke-linecap:round;stroke-linejoin:round;stroke-miterlimit:4;stroke-dasharray:none;stroke-dashoffset:0.56;-inkscape-stroke:hairline"
         id="rect1054-3-6-7-5-5-9-2-0-7"
         width="38"
         height="8"
         x="129.48289"
         y="30.144213" />
      <rect
         style="color:#000000;overflow:visible;vector-effect:non-scaling-stroke;fill:#a7a7a7;fill-opacity:1;stroke:#000000;stroke-width:0.00185208;stroke-linecap:round;stroke-linejoin:round;stroke-miterlimit:4;stroke-dasharray:none;stroke-dashoffset:0.56;-inkscape-stroke:hairline"
         id="rect1054-3-6-7-5-3-8-1-5-6-7"
         width="38"
         height="8"
         x="167.48289"
         y="30.144213" />
      <rect
         style="color:#000000;overflow:visible;vector-effect:non-scaling-stroke;fill:#a7a7a7;fill-opacity:1;stroke:#000000;stroke-width:0.00183309;stroke-linecap:round;stroke-linejoin:round;stroke-miterlimit:4;stroke-dasharray:none;stroke-dashoffset:0.56;-inkscape-stroke:hairline"
         id="rect1054-3-6-7-5-3-5-7-5-3-4-2"
         width="37.303482"
         height="7.9831309"
         x="205.49133"
         y="30.152647" />
      <g
         id="g42077-4-7-6"
         transform="translate(227.31191)">
        <rect
           style="color:#000000;overflow:visible;vector-effect:non-scaling-stroke;fill:#000000;fill-opacity:1;stroke:#000000;stroke-width:0.00185208;stroke-linecap:round;stroke-linejoin:round;stroke-miterlimit:4;stroke-dasharray:none;stroke-dashoffset:0.56;-inkscape-stroke:hairline"
           id="rect1054-32-0-9-4-4"
           width="38"
           height="8"
           x="15.482892"
           y="30.144213" />
        <text
           xml:space="preserve"
           style="font-size:5.73467px;line-height:1ex;font-family:'Futura Book';-inkscape-font-specification:'Futura Book, ';letter-spacing:0px;word-spacing:0px;writing-mode:lr-tb;fill:#e7e7e7;fill-opacity:1;stroke:none;stroke-width:0.143593;stroke-linecap:butt;stroke-linejoin:miter;stroke-miterlimit:4;stroke-dasharray:none;stroke-opacity:1"
           x="21.367073"
           y="36.045105"
           id="text2756-9-4-0-8-5"><tspan
             sodipodi:role="line"
             id="tspan2754-6-9-2-5-2"
             style="font-style:normal;font-variant:normal;font-weight:600;font-stretch:normal;font-family:'Open Sans';-inkscape-font-specification:'Open Sans Semi-Bold';fill:#e7e7e7;fill-opacity:1;stroke:none;stroke-width:0.143593;stroke-miterlimit:4;stroke-dasharray:none;stroke-opacity:1"
             x="21.367073"
             y="36.045105">MONDAY</tspan></text>
      </g>
      <text
         xml:space="preserve"
         style="font-size:5.73467px;line-height:1ex;font-family:'Futura Book';-inkscape-font-specification:'Futura Book, ';letter-spacing:0px;word-spacing:0px;writing-mode:lr-tb;fill:#e7e7e7;fill-opacity:1;stroke:none;stroke-width:0.143593;stroke-linecap:butt;stroke-linejoin:miter;stroke-miterlimit:4;stroke-dasharray:none;stroke-opacity:1"
         x="21.817894"
         y="36.042297"
         id="text2756-6-0-2-0-8-0"><tspan
           sodipodi:role="line"
           id="tspan2754-2-4-5-1-2-2"
           style="font-style:normal;font-variant:normal;font-weight:600;font-stretch:normal;font-family:'Open Sans';-inkscape-font-specification:'Open Sans Semi-Bold';fill:#e7e7e7;fill-opacity:1;stroke:none;stroke-width:0.143593;stroke-miterlimit:4;stroke-dasharray:none;stroke-opacity:1"
           x="21.817894"
           y="36.042297">TUESDAY</tspan></text>
      <text
         xml:space="preserve"
         style="font-size:5.73467px;line-height:1ex;font-family:'Futura Book';-inkscape-font-specification:'Futura Book, ';letter-spacing:0px;word-spacing:0px;writing-mode:lr-tb;fill:#e7e7e7;fill-opacity:1;stroke:none;stroke-width:0.143593;stroke-linecap:butt;stroke-linejoin:miter;stroke-miterlimit:4;stroke-dasharray:none;stroke-opacity:1"
         x="54.930267"
         y="36.042297"
         id="text2756-6-9-1-7-9-6-9"><tspan
           sodipodi:role="line"
           id="tspan2754-2-1-0-4-6-0-0"
           style="font-style:normal;font-variant:normal;font-weight:600;font-stretch:normal;font-family:'Open Sans';-inkscape-font-specification:'Open Sans Semi-Bold';fill:#e7e7e7;fill-opacity:1;stroke:none;stroke-width:0.143593;stroke-miterlimit:4;stroke-dasharray:none;stroke-opacity:1"
           x="54.930267"
           y="36.042297">WEDNESDAY</tspan></text>
      <text
         xml:space="preserve"
         style="font-size:5.73467px;line-height:1ex;font-family:'Futura Book';-inkscape-font-specification:'Futura Book, ';letter-spacing:0px;word-spacing:0px;writing-mode:lr-tb;fill:#e7e7e7;fill-opacity:1;stroke:none;stroke-width:0.143593;stroke-linecap:butt;stroke-linejoin:miter;stroke-miterlimit:4;stroke-dasharray:none;stroke-opacity:1"
         x="95.43219"
         y="36.042297"
         id="text2756-6-9-2-4-9-2-6-9"
         inkscape:transform-center-x="21.323223"
         inkscape:transform-center-y="-17.018479"><tspan
           sodipodi:role="line"
           id="tspan2754-2-1-7-8-9-1-6-9"
           style="font-style:normal;font-variant:normal;font-weight:600;font-stretch:normal;font-family:'Open Sans';-inkscape-font-specification:'Open Sans Semi-Bold';fill:#e7e7e7;fill-opacity:1;stroke:none;stroke-width:0.143593;stroke-miterlimit:4;stroke-dasharray:none;stroke-opacity:1"
           x="95.43219"
           y="36.042297">THURSDAY</tspan></text>
      <text
         xml:space="preserve"
         style="font-size:5.73467px;line-height:1ex;font-family:'Futura Book';-inkscape-font-specification:'Futura Book, ';letter-spacing:0px;word-spacing:0px;writing-mode:lr-tb;fill:#e7e7e7;fill-opacity:1;stroke:none;stroke-width:0.143593;stroke-linecap:butt;stroke-linejoin:miter;stroke-miterlimit:4;stroke-dasharray:none;stroke-opacity:1"
         x="138.28201"
         y="36.049297"
         id="text2756-6-9-2-0-7-4-2-4-4"
         inkscape:transform-center-x="21.323223"
         inkscape:transform-center-y="-17.018479"><tspan
           sodipodi:role="line"
           id="tspan2754-2-1-7-9-0-5-0-6-5"
           style="font-style:normal;font-variant:normal;font-weight:600;font-stretch:normal;font-family:'Open Sans';-inkscape-font-specification:'Open Sans Semi-Bold';fill:#e7e7e7;fill-opacity:1;stroke:none;stroke-width:0.143593;stroke-miterlimit:4;stroke-dasharray:none;stroke-opacity:1"
           x="138.28201"
           y="36.049297">FRIDAY</tspan></text>
      <text
         xml:space="preserve"
         style="font-size:5.73467px;line-height:1ex;font-family:'Futura Book';-inkscape-font-specification:'Futura Book, ';letter-spacing:0px;word-spacing:0px;writing-mode:lr-tb;fill:#000000;fill-opacity:1;stroke:none;stroke-width:0.143593;stroke-linecap:butt;stroke-linejoin:miter;stroke-miterlimit:4;stroke-dasharray:none;stroke-opacity:1"
         x="171.59039"
         y="36.042297"
         id="text2756-6-9-2-0-3-8-9-7-2-1"
         inkscape:transform-center-x="21.323223"
         inkscape:transform-center-y="-17.018479"><tspan
           sodipodi:role="line"
           id="tspan2754-2-1-7-9-6-62-3-3-8-0"
           style="font-style:normal;font-variant:normal;font-weight:600;font-stretch:normal;font-family:'Open Sans';-inkscape-font-specification:'Open Sans Semi-Bold';fill:#000000;fill-opacity:1;stroke:none;stroke-width:0.143593;stroke-miterlimit:4;stroke-dasharray:none;stroke-opacity:1"
           x="171.59039"
           y="36.042297">SATURDAY</tspan></text>
      <text
         xml:space="preserve"
         style="font-size:5.73467px;line-height:1ex;font-family:'Futura Book';-inkscape-font-specification:'Futura Book, ';letter-spacing:0px;word-spacing:0px;writing-mode:lr-tb;fill:#000000;fill-opacity:1;stroke:none;stroke-width:0.143593;stroke-linecap:butt;stroke-linejoin:miter;stroke-miterlimit:4;stroke-dasharray:none;stroke-opacity:1"
         x="212.35591"
         y="36.042297"
         id="text2756-6-9-2-0-3-0-4-5-1-9-3"
         inkscape:transform-center-x="21.323223"
         inkscape:transform-center-y="-17.018479"><tspan
           sodipodi:role="line"
           id="tspan2754-2-1-7-9-6-6-7-7-1-6-7"
           style="font-style:normal;font-variant:normal;font-weight:600;font-stretch:normal;font-family:'Open Sans';-inkscape-font-specification:'Open Sans Semi-Bold';fill:#000000;fill-opacity:1;stroke:none;stroke-width:0.143593;stroke-miterlimit:4;stroke-dasharray:none;stroke-opacity:1"
           x="212.35591"
           y="36.042297">SUNDAY</tspan></text>
      <text
         xml:space="preserve"
         style="font-size:8.46667px;line-height:1ex;font-family:'Futura Book';-inkscape-font-specification:'Futura Book, ';letter-spacing:3.175px;word-spacing:0px;writing-mode:lr-tb;fill:none;stroke:#000000;stroke-width:0.264583px;stroke-linecap:butt;stroke-linejoin:miter;stroke-opacity:1"
         x="95.974579"
         y="25.465815"
         id="text27706-9-0-9-0-8"><tspan
           sodipodi:role="line"
           id="tspan27704-3-8-0-7-8"
           style="font-style:normal;font-variant:normal;font-weight:normal;font-stretch:normal;font-size:8.46667px;font-family:'Open Sans';-inkscape-font-specification:'Open Sans';fill:#000000;fill-opacity:1;stroke:none;stroke-width:0.264583px"
           x="95.974579"
           y="25.465815">DECEMBER 2024</tspan></text>
    </g>
  </g>
</svg>
